0;500
604800;500
1209600;500
1814400;500
2419200;500
3024000;500
3628800;458
4233600;458
4838400;458
5443200;458
6048000;375
6652800;375
7257600;375
7862400;375
8467200;292
9072000;292
9676800;292
10281600;292
10886400;125
11491200;125
12096000;125
12700800;125
13305600;125
13910400;83
14515200;83
15120000;83
15724800;83
16329600;83
16934400;83
17539200;83
18144000;83
18748800;83
19353600;83
19958400;83
20563200;83
21168000;83
21772800;83
22377600;83
22982400;83
23587200;83
24192000;125
24796800;125
25401600;125
26006400;125
26611200;292
27216000;292
27820800;292
28425600;292
29030400;292
29635200;458
30240000;458
30844800;458
31449600;458
